[gd_resource type="StyleBoxTexture" load_steps=2 format=2]

[ext_resource path="res://Assets/Button-selected.svg" type="Texture" id=1]

[resource]
texture = ExtResource( 1 )
region_rect = Rect2( 0, 0, 434, 117 )
margin_left = 90.0
margin_right = 88.0
margin_top = 7.0
margin_bottom = 7.0
