[gd_scene load_steps=3 format=2]

[sub_resource type="Shader" id=1]
code = "shader_type canvas_item;

uniform vec4 start_color: hint_color;
uniform vec4 end_color: hint_color;
uniform sampler2D noise_texture;

void fragment(){
	COLOR = mix (start_color, end_color, smoothstep(0.5, 0.0, UV.x));
	}
"

[sub_resource type="ShaderMaterial" id=2]
shader = SubResource( 1 )
shader_param/start_color = Color( 1, 1, 1, 0.486275 )
shader_param/end_color = Color( 1, 1, 1, 0.0666667 )

[node name="Star" type="ColorRect"]
material = SubResource( 2 )
margin_right = 40.0
margin_bottom = 40.0
